{"products":[{"id":2969168,"title":"嬌生 嬰兒甜夢舒眠潤膚乳液","description":null,"imageUrl":"https://honestbees.s3.amazonaws.com/products/images/480/cf_cf0006450_cf0006450-1.jpg","previewImageUrl":"https://honestbees.s3.amazonaws.com/products/images/480/cf_cf0006450_cf0006450-1.jpg","slug":null,"barcodes":[],"barcode":null,"unitType":"unit_type_item","soldBy":"sold_by_item","amountPerUnit":"1.0","size":"500 毫升","status":"status_available","imageUrlBasename":"cf_cf0006450_cf0006450-1.jpg","currency":"TWD","promotionStartsAt":null,"promotionEndsAt":null,"maxQuantity":"10.0","customerNotesEnabled":true,"price":"228.0","normalPrice":"228.0","nutritionalInfo":null,"productBrand":null,"productInfo":null,"packingSize":"500 毫升","descriptionHtml":null,"countryOfOrigin":null,"tags":[],"alcohol":false},{"id":2971812,"title":"好奇白金頂級守護紙尿褲NB (韓國)","description":null,"imageUrl":"https://honestbees.s3.amazonaws.com/products/images/480/cf_cf0000791_cf0000791-1.jpg","previewImageUrl":"https://honestbees.s3.amazonaws.com/products/images/480/cf_cf0000791_cf0000791-1.jpg","slug":null,"barcodes":[],"barcode":null,"unitType":"unit_type_item","soldBy":"sold_by_item","amountPerUnit":"1.0","size":"40 片","status":"status_available","imageUrlBasename":"cf_cf0000791_cf0000791-1.jpg","currency":"TWD","promotionStartsAt":null,"promotionEndsAt":null,"maxQuantity":"4.0","customerNotesEnabled":true,"price":"234.0","normalPrice":"234.0","nutritionalInfo":null,"productBrand":null,"productInfo":null,"packingSize":null,"descriptionHtml":null,"countryOfOrigin":null,"tags":[],"alcohol":false},{"id":2969170,"title":"嬌生 嬰兒深層潤膚乳液","description":null,"imageUrl":"https://honestbees.s3.amazonaws.com/products/images/480/cf_cf0006452_cf0006452-1.jpg","previewImageUrl":"https://honestbees.s3.amazonaws.com/products/images/480/cf_cf0006452_cf0006452-1.jpg","slug":null,"barcodes":[],"barcode":null,"unitType":"unit_type_item","soldBy":"sold_by_item","amountPerUnit":"1.0","size":"500 毫升","status":"status_available","imageUrlBasename":"cf_cf0006452_cf0006452-1.jpg","currency":"TWD","promotionStartsAt":null,"promotionEndsAt":null,"maxQuantity":"10.0","customerNotesEnabled":true,"price":"240.0","normalPrice":"240.0","nutritionalInfo":null,"productBrand":null,"productInfo":null,"packingSize":null,"descriptionHtml":null,"countryOfOrigin":null,"tags":[],"alcohol":false},{"id":2971681,"title":"幫寶適超薄乾爽箱裝 - M","description":null,"imageUrl":"https://honestbees.s3.amazonaws.com/products/images/480/cf_cf0000657_cf0000657-1.jpg","previewImageUrl":"https://honestbees.s3.amazonaws.com/products/images/480/cf_cf0000657_cf0000657-1.jpg","slug":null,"barcodes":[],"barcode":null,"unitType":"unit_type_item","soldBy":"sold_by_item","amountPerUnit":"1.0","size":"204 片","status":"status_available","imageUrlBasename":"cf_cf0000657_cf0000657-1.jpg","currency":"TWD","promotionStartsAt":null,"promotionEndsAt":null,"maxQuantity":"1.0","customerNotesEnabled":true,"price":"1368.0","normalPrice":"1368.0","nutritionalInfo":null,"productBrand":null,"productInfo":null,"packingSize":null,"descriptionHtml":null,"countryOfOrigin":null,"tags":[],"alcohol":false},{"id":2969164,"title":"嬌生 嬰兒草本沐浴精","description":null,"imageUrl":"https://honestbees.s3.amazonaws.com/products/images/480/cf_cf0006445_cf0006445-1.jpg","previewImageUrl":"https://honestbees.s3.amazonaws.com/products/images/480/cf_cf0006445_cf0006445-1.jpg","slug":null,"barcodes":[],"barcode":null,"unitType":"unit_type_item","soldBy":"sold_by_item","amountPerUnit":"1.0","size":"1 公升","status":"status_available","imageUrlBasename":"cf_cf0006445_cf0006445-1.jpg","currency":"TWD","promotionStartsAt":null,"promotionEndsAt":null,"maxQuantity":"10.0","customerNotesEnabled":true,"price":"164.0","normalPrice":"164.0","nutritionalInfo":null,"productBrand":null,"productInfo":null,"packingSize":"1 公升","descriptionHtml":null,"countryOfOrigin":null,"tags":[],"alcohol":false},{"id":2971711,"title":"滿意寶寶輕巧褲女 - M42 (台灣)","description":null,"imageUrl":"https://honestbees.s3.amazonaws.com/products/images/480/cf_cf0000687_cf0000687-1.jpg","previewImageUrl":"https://honestbees.s3.amazonaws.com/products/images/480/cf_cf0000687_cf0000687-1.jpg","slug":null,"barcodes":[],"barcode":null,"unitType":"unit_type_item","soldBy":"sold_by_item","amountPerUnit":"1.0","size":"42 片","status":"status_available","imageUrlBasename":"cf_cf0000687_cf0000687-1.jpg","currency":"TWD","promotionStartsAt":null,"promotionEndsAt":null,"maxQuantity":"4.0","customerNotesEnabled":true,"price":"345.0","normalPrice":"345.0","nutritionalInfo":null,"productBrand":null,"productInfo":null,"packingSize":null,"descriptionHtml":null,"countryOfOrigin":null,"tags":[],"alcohol":false},{"id":2969166,"title":"嬌生 嬰兒甜夢沐浴精","description":null,"imageUrl":"https://honestbees.s3.amazonaws.com/products/images/480/cf_cf0006448_cf0006448-1.jpg","previewImageUrl":"https://honestbees.s3.amazonaws.com/products/images/480/cf_cf0006448_cf0006448-1.jpg","slug":null,"barcodes":[],"barcode":null,"unitType":"unit_type_item","soldBy":"sold_by_item","amountPerUnit":"1.0","size":"1 公升","status":"status_available","imageUrlBasename":"cf_cf0006448_cf0006448-1.jpg","currency":"TWD","promotionStartsAt":null,"promotionEndsAt":null,"maxQuantity":"10.0","customerNotesEnabled":true,"price":"164.0","normalPrice":"164.0","nutritionalInfo":null,"productBrand":null,"productInfo":null,"packingSize":"1 公升","descriptionHtml":null,"countryOfOrigin":null,"tags":[],"alcohol":false},{"id":2971723,"title":"滿意寶寶極致呵護 - S6 (台灣)","description":null,"imageUrl":"https://honestbees.s3.amazonaws.com/products/images/480/cf_cf0000699_cf0000699-1.jpg","previewImageUrl":"https://honestbees.s3.amazonaws.com/products/images/480/cf_cf0000699_cf0000699-1.jpg","slug":null,"barcodes":[],"barcode":null,"unitType":"unit_type_item","soldBy":"sold_by_item","amountPerUnit":"1.0","size":"60 片","status":"status_available","imageUrlBasename":"cf_cf0000699_cf0000699-1.jpg","currency":"TWD","promotionStartsAt":null,"promotionEndsAt":null,"maxQuantity":"4.0","customerNotesEnabled":true,"price":"436.0","normalPrice":"436.0","nutritionalInfo":null,"productBrand":null,"productInfo":null,"packingSize":null,"descriptionHtml":null,"countryOfOrigin":null,"tags":[],"alcohol":false},{"id":2969175,"title":"Nac Nac 嬰兒舒緩泡泡沐浴露","description":null,"imageUrl":"https://honestbees.s3.amazonaws.com/products/images/480/cf_cf0006457_cf0006457-1.jpg","previewImageUrl":"https://honestbees.s3.amazonaws.com/products/images/480/cf_cf0006457_cf0006457-1.jpg","slug":null,"barcodes":[],"barcode":null,"unitType":"unit_type_item","soldBy":"sold_by_item","amountPerUnit":"1.0","size":"400 毫升","status":"status_available","imageUrlBasename":"cf_cf0006457_cf0006457-1.jpg","currency":"TWD","promotionStartsAt":null,"promotionEndsAt":null,"maxQuantity":"10.0","customerNotesEnabled":true,"price":"305.0","normalPrice":"305.0","nutritionalInfo":null,"productBrand":null,"productInfo":null,"packingSize":null,"descriptionHtml":null,"countryOfOrigin":null,"tags":[],"alcohol":false},{"id":2971688,"title":"金好奇護膚乾爽pH5.5紙尿布褲 - XXL (台灣)","description":null,"imageUrl":"https://honestbees.s3.amazonaws.com/products/images/480/cf_cf0000664_cf0000664-1.jpg","previewImageUrl":"https://honestbees.s3.amazonaws.com/products/images/480/cf_cf0000664_cf0000664-1.jpg","slug":null,"barcodes":[],"barcode":null,"unitType":"unit_type_item","soldBy":"sold_by_item","amountPerUnit":"1.0","size":"27 片","status":"status_available","imageUrlBasename":"cf_cf0000664_cf0000664-1.jpg","currency":"TWD","promotionStartsAt":null,"promotionEndsAt":null,"maxQuantity":"4.0","customerNotesEnabled":true,"price":"429.0","normalPrice":"429.0","nutritionalInfo":null,"productBrand":null,"productInfo":null,"packingSize":null,"descriptionHtml":null,"countryOfOrigin":null,"tags":[],"alcohol":false},{"id":2971715,"title":"Goo.n大王紙尿褲國際版 - S (台灣)","description":null,"imageUrl":"https://honestbees.s3.amazonaws.com/products/images/480/cf_cf0000691_cf0000691-1.jpg","previewImageUrl":"https://honestbees.s3.amazonaws.com/products/images/480/cf_cf0000691_cf0000691-1.jpg","slug":null,"barcodes":[],"barcode":null,"unitType":"unit_type_item","soldBy":"sold_by_item","amountPerUnit":"1.0","size":"44 片","status":"status_available","imageUrlBasename":"cf_cf0000691_cf0000691-1.jpg","currency":"TWD","promotionStartsAt":null,"promotionEndsAt":null,"maxQuantity":"4.0","customerNotesEnabled":true,"price":"347.0","normalPrice":"347.0","nutritionalInfo":null,"productBrand":null,"productInfo":null,"packingSize":null,"descriptionHtml":null,"countryOfOrigin":null,"tags":[],"alcohol":false},{"id":2969165,"title":"嬌生 嬰兒牛奶純米沐浴乳","description":null,"imageUrl":"https://honestbees.s3.amazonaws.com/products/images/480/cf_cf0006446_cf0006446-1.jpg","previewImageUrl":"https://honestbees.s3.amazonaws.com/products/images/480/cf_cf0006446_cf0006446-1.jpg","slug":null,"barcodes":[],"barcode":null,"unitType":"unit_type_item","soldBy":"sold_by_item","amountPerUnit":"1.0","size":"1 公升","status":"status_available","imageUrlBasename":"cf_cf0006446_cf0006446-1.jpg","currency":"TWD","promotionStartsAt":null,"promotionEndsAt":null,"maxQuantity":"10.0","customerNotesEnabled":true,"price":"170.0","normalPrice":"170.0","nutritionalInfo":null,"productBrand":null,"productInfo":null,"packingSize":null,"descriptionHtml":null,"countryOfOrigin":null,"tags":[],"alcohol":false},{"id":2976238,"title":"幫寶適 超薄乾爽紙尿褲 - XXL","description":null,"imageUrl":"https://honestbees.s3.amazonaws.com/products/images/480/cf_cf0009398_cf0009398-1.jpg","previewImageUrl":"https://honestbees.s3.amazonaws.com/products/images/480/cf_cf0009398_cf0009398-1.jpg","slug":null,"barcodes":[],"barcode":null,"unitType":"unit_type_item","soldBy":"sold_by_item","amountPerUnit":"1.0","size":"31 片","status":"status_available","imageUrlBasename":"cf_cf0009398_cf0009398-1.jpg","currency":"TWD","promotionStartsAt":null,"promotionEndsAt":null,"maxQuantity":"4.0","customerNotesEnabled":true,"price":"482.0","normalPrice":"482.0","nutritionalInfo":null,"productBrand":"幫寶適","productInfo":null,"packingSize":null,"descriptionHtml":null,"countryOfOrigin":null,"tags":[],"alcohol":false},{"id":2971882,"title":"豐力富Nature 3 - 7 歲兒童奶粉 (台灣)","description":null,"imageUrl":"https://honestbees.s3.amazonaws.com/products/images/480/cf_cf0000861_cf0000861-1.jpg","previewImageUrl":"https://honestbees.s3.amazonaws.com/products/images/480/cf_cf0000861_cf0000861-1.jpg","slug":null,"barcodes":[],"barcode":null,"unitType":"unit_type_item","soldBy":"sold_by_item","amountPerUnit":"1.0","size":"1.5 公斤","status":"status_available","imageUrlBasename":"cf_cf0000861_cf0000861-1.jpg","currency":"TWD","promotionStartsAt":null,"promotionEndsAt":null,"maxQuantity":"10.0","customerNotesEnabled":true,"price":"891.0","normalPrice":"891.0","nutritionalInfo":null,"productBrand":null,"productInfo":null,"packingSize":"1.5 公斤","descriptionHtml":null,"countryOfOrigin":null,"tags":[],"alcohol":false},{"id":2971809,"title":"滿意寶寶防溢母乳墊 (日本)","description":null,"imageUrl":"https://honestbees.s3.amazonaws.com/products/images/480/cf_cf0000788_cf0000788-1.jpg","previewImageUrl":"https://honestbees.s3.amazonaws.com/products/images/480/cf_cf0000788_cf0000788-1.jpg","slug":null,"barcodes":[],"barcode":null,"unitType":"unit_type_item","soldBy":"sold_by_item","amountPerUnit":"1.0","size":"68 片","status":"status_out_of_stock","imageUrlBasename":"cf_cf0000788_cf0000788-1.jpg","currency":"TWD","promotionStartsAt":null,"promotionEndsAt":null,"maxQuantity":"4.0","customerNotesEnabled":true,"price":"264.0","normalPrice":"264.0","nutritionalInfo":null,"productBrand":null,"productInfo":null,"packingSize":null,"descriptionHtml":null,"countryOfOrigin":null,"tags":[],"alcohol":false},{"id":2969177,"title":"嬌生 清爽嬰兒潤膚油","description":null,"imageUrl":"https://honestbees.s3.amazonaws.com/products/images/480/cf_cf0006459_cf0006459-1.jpg","previewImageUrl":"https://honestbees.s3.amazonaws.com/products/images/480/cf_cf0006459_cf0006459-1.jpg","slug":null,"barcodes":[],"barcode":null,"unitType":"unit_type_item","soldBy":"sold_by_item","amountPerUnit":"1.0","size":"414 毫升","status":"status_out_of_stock","imageUrlBasename":"cf_cf0006459_cf0006459-1.jpg","currency":"TWD","promotionStartsAt":null,"promotionEndsAt":null,"maxQuantity":"10.0","customerNotesEnabled":true,"price":"278.0","normalPrice":"278.0","nutritionalInfo":null,"productBrand":null,"productInfo":null,"packingSize":null,"descriptionHtml":null,"countryOfOrigin":null,"tags":[],"alcohol":false},{"id":2971745,"title":"滿意寶寶活潑寶寶紙尿褲 - 小 (台灣)","description":null,"imageUrl":"https://honestbees.s3.amazonaws.com/products/images/480/cf_cf0000721_cf0000721-1.jpg","previewImageUrl":"https://honestbees.s3.amazonaws.com/products/images/480/cf_cf0000721_cf0000721-1.jpg","slug":null,"barcodes":[],"barcode":null,"unitType":"unit_type_item","soldBy":"sold_by_item","amountPerUnit":"1.0","size":"62 片","status":"status_out_of_stock","imageUrlBasename":"cf_cf0000721_cf0000721-1.jpg","currency":"TWD","promotionStartsAt":null,"promotionEndsAt":null,"maxQuantity":"4.0","customerNotesEnabled":true,"price":"299.0","normalPrice":"299.0","nutritionalInfo":null,"productBrand":null,"productInfo":null,"packingSize":null,"descriptionHtml":null,"countryOfOrigin":null,"tags":[],"alcohol":false},{"id":2971794,"title":"好奇純水濕巾厚型箱裝 (台灣)","description":null,"imageUrl":"https://honestbees.s3.amazonaws.com/products/images/480/cf_cf0000773_cf0000773-1.jpg","previewImageUrl":"https://honestbees.s3.amazonaws.com/products/images/480/cf_cf0000773_cf0000773-1.jpg","slug":null,"barcodes":[],"barcode":null,"unitType":"unit_type_item","soldBy":"sold_by_item","amountPerUnit":"1.0","size":"10 x 80 張 / 箱","status":"status_out_of_stock","imageUrlBasename":"cf_cf0000773_cf0000773-1.jpg","currency":"TWD","promotionStartsAt":null,"promotionEndsAt":null,"maxQuantity":"4.0","customerNotesEnabled":true,"price":"439.0","normalPrice":"439.0","nutritionalInfo":null,"productBrand":null,"productInfo":null,"packingSize":null,"descriptionHtml":null,"countryOfOrigin":null,"tags":[],"alcohol":false},{"id":2971724,"title":"滿意寶寶極致呵護 - M (日本)","description":null,"imageUrl":"https://honestbees.s3.amazonaws.com/products/images/480/cf_cf0000700_cf0000700-1.jpg","previewImageUrl":"https://honestbees.s3.amazonaws.com/products/images/480/cf_cf0000700_cf0000700-1.jpg","slug":null,"barcodes":[],"barcode":null,"unitType":"unit_type_item","soldBy":"sold_by_item","amountPerUnit":"1.0","size":"80 片","status":"status_out_of_stock","imageUrlBasename":"cf_cf0000700_cf0000700-1.jpg","currency":"TWD","promotionStartsAt":null,"promotionEndsAt":null,"maxQuantity":"4.0","customerNotesEnabled":true,"price":"736.0","normalPrice":"736.0","nutritionalInfo":null,"productBrand":null,"productInfo":null,"packingSize":null,"descriptionHtml":null,"countryOfOrigin":null,"tags":[],"alcohol":false},{"id":2971877,"title":"桂格小朋友奶粉蜂膠配方 (台灣)","description":null,"imageUrl":"https://honestbees.s3.amazonaws.com/products/images/480/cf_cf0000856_cf0000856-1.jpg","previewImageUrl":"https://honestbees.s3.amazonaws.com/products/images/480/cf_cf0000856_cf0000856-1.jpg","slug":null,"barcodes":[],"barcode":null,"unitType":"unit_type_item","soldBy":"sold_by_item","amountPerUnit":"1.0","size":"1.5 公斤","status":"status_out_of_stock","imageUrlBasename":"cf_cf0000856_cf0000856-1.jpg","currency":"TWD","promotionStartsAt":null,"promotionEndsAt":null,"maxQuantity":"10.0","customerNotesEnabled":true,"price":"697.0","normalPrice":"697.0","nutritionalInfo":null,"productBrand":null,"productInfo":null,"packingSize":"1.5 公斤","descriptionHtml":null,"countryOfOrigin":null,"tags":[],"alcohol":false},{"id":2971873,"title":"桂格Ph.D.高反應成長奶粉 (台灣)","description":null,"imageUrl":"https://honestbees.s3.amazonaws.com/products/images/480/cf_cf0000852_cf0000852-1.jpg","previewImageUrl":"https://honestbees.s3.amazonaws.com/products/images/480/cf_cf0000852_cf0000852-1.jpg","slug":null,"barcodes":[],"barcode":null,"unitType":"unit_type_item","soldBy":"sold_by_item","amountPerUnit":"1.0","size":"1.5 公斤","status":"status_out_of_stock","imageUrlBasename":"cf_cf0000852_cf0000852-1.jpg","currency":"TWD","promotionStartsAt":null,"promotionEndsAt":null,"maxQuantity":"10.0","customerNotesEnabled":true,"price":"871.0","normalPrice":"871.0","nutritionalInfo":null,"productBrand":null,"productInfo":null,"packingSize":null,"descriptionHtml":null,"countryOfOrigin":null,"tags":[],"alcohol":false},{"id":2969176,"title":"Nac Nac 活膚泡泡泡沫洗髮沐浴精","description":null,"imageUrl":"https://honestbees.s3.amazonaws.com/products/images/480/cf_cf0006458_cf0006458-1.jpg","previewImageUrl":"https://honestbees.s3.amazonaws.com/products/images/480/cf_cf0006458_cf0006458-1.jpg","slug":null,"barcodes":[],"barcode":null,"unitType":"unit_type_item","soldBy":"sold_by_item","amountPerUnit":"1.0","size":"500 毫升","status":"status_out_of_stock","imageUrlBasename":"cf_cf0006458_cf0006458-1.jpg","currency":"TWD","promotionStartsAt":null,"promotionEndsAt":null,"maxQuantity":"10.0","customerNotesEnabled":true,"price":"288.0","normalPrice":"288.0","nutritionalInfo":null,"productBrand":null,"productInfo":null,"packingSize":"500 毫升","descriptionHtml":null,"countryOfOrigin":null,"tags":[],"alcohol":false},{"id":2971714,"title":"大王紙尿褲境內版 - M","description":null,"imageUrl":"https://honestbees.s3.amazonaws.com/products/images/480/cf_cf0000690_cf0000690-1.jpg","previewImageUrl":"https://honestbees.s3.amazonaws.com/products/images/480/cf_cf0000690_cf0000690-1.jpg","slug":null,"barcodes":[],"barcode":null,"unitType":"unit_type_item","soldBy":"sold_by_item","amountPerUnit":"1.0","size":"64 片","status":"status_out_of_stock","imageUrlBasename":"cf_cf0000690_cf0000690-1.jpg","currency":"TWD","promotionStartsAt":null,"promotionEndsAt":null,"maxQuantity":"4.0","customerNotesEnabled":true,"price":"563.0","normalPrice":"563.0","nutritionalInfo":null,"productBrand":"GOO.N","productInfo":null,"packingSize":"64 片","descriptionHtml":null,"countryOfOrigin":null,"tags":[],"alcohol":false},{"id":2971739,"title":"來復易內褲型併用尿片 (台灣)","description":null,"imageUrl":"https://honestbees.s3.amazonaws.com/products/images/480/cf_cf0000715_cf0000715-1.jpg","previewImageUrl":"https://honestbees.s3.amazonaws.com/products/images/480/cf_cf0000715_cf0000715-1.jpg","slug":null,"barcodes":[],"barcode":null,"unitType":"unit_type_item","soldBy":"sold_by_item","amountPerUnit":"1.0","size":"24 片","status":"status_out_of_stock","imageUrlBasename":"cf_cf0000715_cf0000715-1.jpg","currency":"TWD","promotionStartsAt":null,"promotionEndsAt":null,"maxQuantity":"4.0","customerNotesEnabled":true,"price":"198.0","normalPrice":"198.0","nutritionalInfo":null,"productBrand":null,"productInfo":null,"packingSize":null,"descriptionHtml":null,"countryOfOrigin":null,"tags":[],"alcohol":false},{"id":2974736,"title":"喜馬拉雅 嬰兒潤膚皂","description":null,"imageUrl":"https://honestbees.s3.amazonaws.com/products/images/480/cf_cf0007827_cf0007827-1.jpg","previewImageUrl":"https://honestbees.s3.amazonaws.com/products/images/480/cf_cf0007827_cf0007827-1.jpg","slug":null,"barcodes":[],"barcode":null,"unitType":"unit_type_item","soldBy":"sold_by_item","amountPerUnit":"1.0","size":"75 克","status":"status_out_of_stock","imageUrlBasename":"cf_cf0007827_cf0007827-1.jpg","currency":"TWD","promotionStartsAt":null,"promotionEndsAt":null,"maxQuantity":"10.0","customerNotesEnabled":true,"price":"81.0","normalPrice":"81.0","nutritionalInfo":null,"productBrand":"喜馬拉雅","productInfo":null,"packingSize":"75 克","descriptionHtml":null,"countryOfOrigin":null,"tags":[],"alcohol":false}],"meta":{"current_page":3,"total_pages":3,"total_count":121}}