{"products":[{"id":2973096,"title":"光泉鈣質強化牛乳","description":null,"imageUrl":"https://honestbees.s3.amazonaws.com/products/images/480/cf_cf0002131_cf0002131-1.jpg","previewImageUrl":"https://honestbees.s3.amazonaws.com/products/images/480/cf_cf0002131_cf0002131-1.jpg","slug":null,"barcodes":[],"barcode":null,"unitType":"unit_type_item","soldBy":"sold_by_item","amountPerUnit":"1.0","size":"936 毫升","status":"status_out_of_stock","imageUrlBasename":"cf_cf0002131_cf0002131-1.jpg","currency":"TWD","promotionStartsAt":null,"promotionEndsAt":null,"maxQuantity":"10.0","customerNotesEnabled":true,"price":"81.0","normalPrice":"81.0","nutritionalInfo":null,"productBrand":null,"productInfo":null,"packingSize":null,"descriptionHtml":null,"countryOfOrigin":null,"tags":[],"alcohol":false},{"id":2974982,"title":"Q肉丁原味德國香腸 (4條)","description":null,"imageUrl":"https://honestbees.s3.amazonaws.com/products/images/480/cf_cf0008037_cf0008037-1.jpg","previewImageUrl":"https://honestbees.s3.amazonaws.com/products/images/480/cf_cf0008037_cf0008037-1.jpg","slug":null,"barcodes":[],"barcode":null,"unitType":"unit_type_item","soldBy":"sold_by_item","amountPerUnit":"1.0","size":"200 克","status":"status_out_of_stock","imageUrlBasename":"cf_cf0008037_cf0008037-1.jpg","currency":"TWD","promotionStartsAt":null,"promotionEndsAt":null,"maxQuantity":"10.0","customerNotesEnabled":true,"price":"88.0","normalPrice":"88.0","nutritionalInfo":null,"productBrand":"博客","productInfo":null,"packingSize":null,"descriptionHtml":null,"countryOfOrigin":null,"tags":[],"alcohol":false},{"id":2973046,"title":"大醇豆原味豆漿","description":null,"imageUrl":"https://honestbees.s3.amazonaws.com/products/images/480/cf_cf0002079_cf0002079-1.jpg","previewImageUrl":"https://honestbees.s3.amazonaws.com/products/images/480/cf_cf0002079_cf0002079-1.jpg","slug":null,"barcodes":[],"barcode":null,"unitType":"unit_type_item","soldBy":"sold_by_item","amountPerUnit":"1.0","size":"400 毫升","status":"status_out_of_stock","imageUrlBasename":"cf_cf0002079_cf0002079-1.jpg","currency":"TWD","promotionStartsAt":null,"promotionEndsAt":null,"maxQuantity":"10.0","customerNotesEnabled":true,"price":"20.0","normalPrice":"20.0","nutritionalInfo":null,"productBrand":null,"productInfo":null,"packingSize":null,"descriptionHtml":null,"countryOfOrigin":null,"tags":[],"alcohol":false},{"id":2975424,"title":"義美 古早傳統豆乾 - 五香","description":null,"imageUrl":"https://honestbees.s3.amazonaws.com/products/images/480/cf_cf0008418_cf0008418-1.jpg","previewImageUrl":"https://honestbees.s3.amazonaws.com/products/images/480/cf_cf0008418_cf0008418-1.jpg","slug":null,"barcodes":[],"barcode":null,"unitType":"unit_type_item","soldBy":"sold_by_item","amountPerUnit":"1.0","size":"200 克","status":"status_out_of_stock","imageUrlBasename":"cf_cf0008418_cf0008418-1.jpg","currency":"TWD","promotionStartsAt":null,"promotionEndsAt":null,"maxQuantity":"10.0","customerNotesEnabled":true,"price":"33.0","normalPrice":"33.0","nutritionalInfo":null,"productBrand":"義美","productInfo":null,"packingSize":null,"descriptionHtml":null,"countryOfOrigin":null,"tags":[],"alcohol":false},{"id":2973072,"title":"愛之味芒果燕麥","description":null,"imageUrl":"https://honestbees.s3.amazonaws.com/products/images/480/cf_cf0002106_cf0002106-1.jpg","previewImageUrl":"https://honestbees.s3.amazonaws.com/products/images/480/cf_cf0002106_cf0002106-1.jpg","slug":null,"barcodes":[],"barcode":null,"unitType":"unit_type_item","soldBy":"sold_by_item","amountPerUnit":"1.0","size":"880 毫升","status":"status_out_of_stock","imageUrlBasename":"cf_cf0002106_cf0002106-1.jpg","currency":"TWD","promotionStartsAt":null,"promotionEndsAt":null,"maxQuantity":"10.0","customerNotesEnabled":true,"price":"67.0","normalPrice":"67.0","nutritionalInfo":null,"productBrand":null,"productInfo":null,"packingSize":null,"descriptionHtml":null,"countryOfOrigin":null,"tags":[],"alcohol":false},{"id":2970944,"title":"北港可口米血糕","description":null,"imageUrl":"https://honestbees.s3.amazonaws.com/products/images/480/cf_15121012_1512101200101_p_01.jpg","previewImageUrl":"https://honestbees.s3.amazonaws.com/products/images/480/cf_15121012_1512101200101_p_01.jpg","slug":null,"barcodes":[],"barcode":null,"unitType":"unit_type_item","soldBy":"sold_by_item","amountPerUnit":"1.0","size":"600 克 / 包","status":"status_out_of_stock","imageUrlBasename":"cf_15121012_1512101200101_p_01.jpg","currency":"TWD","promotionStartsAt":null,"promotionEndsAt":null,"maxQuantity":"10.0","customerNotesEnabled":true,"price":"61.0","normalPrice":"61.0","nutritionalInfo":null,"productBrand":null,"productInfo":null,"packingSize":null,"descriptionHtml":"\u003cbr /\u003e注重豬血糕口感，為了讓消費者吃出QQQ豬血糕的絕佳風味，在使用自動化製作生產同時，仍堅持融入傳統古法的精神，由深具經驗的師傅，傳承操作火爐的溫度及技術，這是和其他豬血不同之處\u003cbr /\u003e","countryOfOrigin":null,"tags":[],"alcohol":false},{"id":2971043,"title":"老東山麻辣火鍋","description":null,"imageUrl":"https://honestbees.s3.amazonaws.com/products/images/480/cf_20104151_2010415100101_p_01.jpg","previewImageUrl":"https://honestbees.s3.amazonaws.com/products/images/480/cf_20104151_2010415100101_p_01.jpg","slug":null,"barcodes":[],"barcode":null,"unitType":"unit_type_item","soldBy":"sold_by_item","amountPerUnit":"1.0","size":"800 克 / 份","status":"status_out_of_stock","imageUrlBasename":"cf_20104151_2010415100101_p_01.jpg","currency":"TWD","promotionStartsAt":null,"promotionEndsAt":null,"maxQuantity":"10.0","customerNotesEnabled":true,"price":"113.0","normalPrice":"113.0","nutritionalInfo":null,"productBrand":null,"productInfo":null,"packingSize":"800 克 / 份","descriptionHtml":"\u003cbr /\u003e絕佳麻辣湯頭，在家只須加熱就能獨自享受，豐富食材有杏鮑菇、米血、豬五花肉片、凍豆腐、手工雞肉丸、豆皮等多樣新鮮食材!\u003cbr /\u003e","countryOfOrigin":null,"tags":[],"alcohol":false}],"meta":{"current_page":12,"total_pages":12,"total_count":535}}