{"products":[{"id":2965699,"title":"韭黃","description":null,"imageUrl":"https://honestbees.s3.amazonaws.com/products/images/480/cf_cf0000222_cf0000222-1.jpg","previewImageUrl":"https://honestbees.s3.amazonaws.com/products/images/480/cf_cf0000222_cf0000222-1.jpg","slug":null,"barcodes":[],"barcode":null,"unitType":"unit_type_item","soldBy":"sold_by_item","amountPerUnit":"1.0","size":"176 克 ± 5 %","status":"status_available","imageUrlBasename":"cf_cf0000222_cf0000222-1.jpg","currency":"TWD","promotionStartsAt":null,"promotionEndsAt":null,"maxQuantity":"10.0","customerNotesEnabled":true,"price":"80.0","normalPrice":"80.0","nutritionalInfo":null,"productBrand":null,"productInfo":null,"packingSize":null,"descriptionHtml":null,"countryOfOrigin":null,"tags":[],"alcohol":false},{"id":2965722,"title":"高麗菜","description":null,"imageUrl":"https://honestbees.s3.amazonaws.com/products/images/480/cf_cf0000303_cf0000303-1.jpg","previewImageUrl":"https://honestbees.s3.amazonaws.com/products/images/480/cf_cf0000303_cf0000303-1.jpg","slug":null,"barcodes":[],"barcode":null,"unitType":"unit_type_item","soldBy":"sold_by_item","amountPerUnit":"1.0","size":"600 公克 ± 5 %","status":"status_out_of_stock","imageUrlBasename":"cf_cf0000303_cf0000303-1.jpg","currency":"TWD","promotionStartsAt":null,"promotionEndsAt":null,"maxQuantity":"10.0","customerNotesEnabled":true,"price":"64.0","normalPrice":"64.0","nutritionalInfo":null,"productBrand":null,"productInfo":null,"packingSize":null,"descriptionHtml":"含有豐富的維生素C、維生素E、胡蘿蔔素和維生素U。\u003cbr /\u003e 口感爽脆清甜不膩，適合多種烹調方式。","countryOfOrigin":null,"tags":[],"alcohol":false},{"id":2967349,"title":"綠純 有機青江白菜","description":null,"imageUrl":"https://honestbees.s3.amazonaws.com/products/images/480/cf_cf0004604_cf0004604-1.jpg","previewImageUrl":"https://honestbees.s3.amazonaws.com/products/images/480/cf_cf0004604_cf0004604-1.jpg","slug":null,"barcodes":[],"barcode":null,"unitType":"unit_type_item","soldBy":"sold_by_item","amountPerUnit":"1.0","size":"250 克","status":"status_out_of_stock","imageUrlBasename":"cf_cf0004604_cf0004604-1.jpg","currency":"TWD","promotionStartsAt":null,"promotionEndsAt":null,"maxQuantity":"10.0","customerNotesEnabled":true,"price":"41.0","normalPrice":"41.0","nutritionalInfo":null,"productBrand":null,"productInfo":null,"packingSize":"250 克","descriptionHtml":null,"countryOfOrigin":null,"tags":[],"alcohol":false},{"id":2971272,"title":"牛番茄","description":null,"imageUrl":"https://assets.honestbee.com/products/images/480/cf_cf0000180_cf0000180-1.jpg","previewImageUrl":"https://assets.honestbee.com/products/images/480/cf_cf0000180_cf0000180-1.jpg","slug":null,"barcodes":[],"barcode":null,"unitType":"unit_type_item","soldBy":"sold_by_item","amountPerUnit":"1.0","size":"500 克 ± 5 %","status":"status_out_of_stock","imageUrlBasename":"cf_cf0000180_cf0000180-1.jpg","currency":"TWD","promotionStartsAt":null,"promotionEndsAt":null,"maxQuantity":"10.0","customerNotesEnabled":true,"price":"149.0","normalPrice":"149.0","nutritionalInfo":null,"productBrand":null,"productInfo":null,"packingSize":"500 克 ± 5 %","descriptionHtml":"含有豐富的茄紅素。\u003cbr /\u003e 含有膳食纖維，有助排便，幫助人體新陳代謝。","countryOfOrigin":null,"tags":[],"alcohol":false},{"id":2971330,"title":"大蒜","description":null,"imageUrl":"https://honestbees.s3.amazonaws.com/products/images/480/cf_cf0000242_cf0000242-1.jpg","previewImageUrl":"https://honestbees.s3.amazonaws.com/products/images/480/cf_cf0000242_cf0000242-1.jpg","slug":null,"barcodes":[],"barcode":null,"unitType":"unit_type_item","soldBy":"sold_by_item","amountPerUnit":"1.0","size":"300克± 5 %","status":"status_out_of_stock","imageUrlBasename":"cf_cf0000242_cf0000242-1.jpg","currency":"TWD","promotionStartsAt":null,"promotionEndsAt":null,"maxQuantity":"10.0","customerNotesEnabled":true,"price":"137.0","normalPrice":"137.0","nutritionalInfo":null,"productBrand":null,"productInfo":null,"packingSize":null,"descriptionHtml":null,"countryOfOrigin":null,"tags":[],"alcohol":false},{"id":3544490,"title":"茼蒿","description":null,"imageUrl":"https://assets.honestbee.com/products/images/480/cf_22-000105-001_22-000105-001-1.jpg","previewImageUrl":"https://assets.honestbee.com/products/images/480/cf_22-000105-001_22-000105-001-1.jpg","slug":null,"barcodes":[],"barcode":null,"unitType":"unit_type_item","soldBy":"sold_by_item","amountPerUnit":"1.0","size":"1 包","status":"status_out_of_stock","imageUrlBasename":"cf_22-000105-001_22-000105-001-1.jpg","currency":"TWD","promotionStartsAt":null,"promotionEndsAt":null,"maxQuantity":"0.0","customerNotesEnabled":true,"price":"45.0","normalPrice":"45.0","nutritionalInfo":null,"productBrand":null,"productInfo":null,"packingSize":"1 包","descriptionHtml":null,"countryOfOrigin":null,"tags":[],"alcohol":false}],"meta":{"current_page":3,"total_pages":3,"total_count":102}}