{"products":[{"id":2975921,"title":"奇威 尊龍寵物專用沐浴香波 - 長毛寵物沐浴乳","description":null,"imageUrl":"https://honestbees.s3.amazonaws.com/products/images/480/cf_cf0008994_cf0008994-1.jpg","previewImageUrl":"https://honestbees.s3.amazonaws.com/products/images/480/cf_cf0008994_cf0008994-1.jpg","slug":null,"barcodes":[],"barcode":null,"unitType":"unit_type_item","soldBy":"sold_by_item","amountPerUnit":"1.0","size":"1 罐","status":"status_available","imageUrlBasename":"cf_cf0008994_cf0008994-1.jpg","currency":"TWD","promotionStartsAt":null,"promotionEndsAt":null,"maxQuantity":"10.0","customerNotesEnabled":true,"price":"226.0","normalPrice":"226.0","nutritionalInfo":null,"productBrand":"奇威","productInfo":null,"packingSize":null,"descriptionHtml":null,"countryOfOrigin":null,"tags":[],"alcohol":false},{"id":2975858,"title":"寶路 鮮享包 - 牛肉燴雞丁","description":null,"imageUrl":"https://honestbees.s3.amazonaws.com/products/images/480/cf_cf0008856_cf0008856-1.jpg","previewImageUrl":"https://honestbees.s3.amazonaws.com/products/images/480/cf_cf0008856_cf0008856-1.jpg","slug":null,"barcodes":[],"barcode":null,"unitType":"unit_type_item","soldBy":"sold_by_item","amountPerUnit":"1.0","size":"3 x 130 克","status":"status_available","imageUrlBasename":"cf_cf0008856_cf0008856-1.jpg","currency":"TWD","promotionStartsAt":null,"promotionEndsAt":null,"maxQuantity":"10.0","customerNotesEnabled":true,"price":"103.0","normalPrice":"103.0","nutritionalInfo":null,"productBrand":"寶路","productInfo":null,"packingSize":null,"descriptionHtml":null,"countryOfOrigin":null,"tags":[],"alcohol":false},{"id":2975952,"title":"小淘氣 貓乾糧 - 幼貓專用鮪魚吻仔魚","description":null,"imageUrl":"https://honestbees.s3.amazonaws.com/products/images/480/cf_cf0009025_cf0009025-1.jpg","previewImageUrl":"https://honestbees.s3.amazonaws.com/products/images/480/cf_cf0009025_cf0009025-1.jpg","slug":null,"barcodes":[],"barcode":null,"unitType":"unit_type_item","soldBy":"sold_by_item","amountPerUnit":"1.0","size":"1 入","status":"status_available","imageUrlBasename":"cf_cf0009025_cf0009025-1.jpg","currency":"TWD","promotionStartsAt":null,"promotionEndsAt":null,"maxQuantity":"1.0","customerNotesEnabled":true,"price":"228.0","normalPrice":"228.0","nutritionalInfo":null,"productBrand":"小淘氣","productInfo":null,"packingSize":null,"descriptionHtml":null,"countryOfOrigin":null,"tags":[],"alcohol":false},{"id":2975953,"title":"小淘氣 貓乾糧 - 成貓專用海鮮總匯","description":null,"imageUrl":"https://honestbees.s3.amazonaws.com/products/images/480/cf_cf0009026_cf0009026-1.jpg","previewImageUrl":"https://honestbees.s3.amazonaws.com/products/images/480/cf_cf0009026_cf0009026-1.jpg","slug":null,"barcodes":[],"barcode":null,"unitType":"unit_type_item","soldBy":"sold_by_item","amountPerUnit":"1.0","size":"1.2 公斤 ± 0.5%","status":"status_available","imageUrlBasename":"cf_cf0009026_cf0009026-1.jpg","currency":"TWD","promotionStartsAt":null,"promotionEndsAt":null,"maxQuantity":"1.0","customerNotesEnabled":true,"price":"228.0","normalPrice":"228.0","nutritionalInfo":null,"productBrand":"小淘氣","productInfo":null,"packingSize":null,"descriptionHtml":null,"countryOfOrigin":null,"tags":[],"alcohol":false},{"id":2970026,"title":"凱尼斯 地瓜雞肉捲","description":null,"imageUrl":"https://honestbees.s3.amazonaws.com/products/images/480/cf_cf0008922_cf0008922-1.jpg","previewImageUrl":"https://honestbees.s3.amazonaws.com/products/images/480/cf_cf0008922_cf0008922-1.jpg","slug":null,"barcodes":[],"barcode":null,"unitType":"unit_type_item","soldBy":"sold_by_item","amountPerUnit":"1.0","size":"180 克","status":"status_available","imageUrlBasename":"cf_cf0008922_cf0008922-1.jpg","currency":"TWD","promotionStartsAt":null,"promotionEndsAt":null,"maxQuantity":"10.0","customerNotesEnabled":true,"price":"288.0","normalPrice":"288.0","nutritionalInfo":null,"productBrand":"凱尼斯","productInfo":null,"packingSize":null,"descriptionHtml":null,"countryOfOrigin":null,"tags":[],"alcohol":false},{"id":2975910,"title":"仙境奇緣 驅蟲蚤專用香浴精","description":null,"imageUrl":"https://honestbees.s3.amazonaws.com/products/images/480/cf_cf0008983_cf0008983-1.jpg","previewImageUrl":"https://honestbees.s3.amazonaws.com/products/images/480/cf_cf0008983_cf0008983-1.jpg","slug":null,"barcodes":[],"barcode":null,"unitType":"unit_type_item","soldBy":"sold_by_item","amountPerUnit":"1.0","size":"1 瓶","status":"status_available","imageUrlBasename":"cf_cf0008983_cf0008983-1.jpg","currency":"TWD","promotionStartsAt":null,"promotionEndsAt":null,"maxQuantity":"10.0","customerNotesEnabled":true,"price":"153.0","normalPrice":"153.0","nutritionalInfo":null,"productBrand":"仙境奇緣","productInfo":null,"packingSize":null,"descriptionHtml":null,"countryOfOrigin":null,"tags":[],"alcohol":false},{"id":2975934,"title":"仙境奇緣 溪魚專用魚飼料","description":null,"imageUrl":"https://honestbees.s3.amazonaws.com/products/images/480/cf_cf0009007_cf0009007-1.jpg","previewImageUrl":"https://honestbees.s3.amazonaws.com/products/images/480/cf_cf0009007_cf0009007-1.jpg","slug":null,"barcodes":[],"barcode":null,"unitType":"unit_type_item","soldBy":"sold_by_item","amountPerUnit":"1.0","size":"100 克","status":"status_available","imageUrlBasename":"cf_cf0009007_cf0009007-1.jpg","currency":"TWD","promotionStartsAt":null,"promotionEndsAt":null,"maxQuantity":"10.0","customerNotesEnabled":true,"price":"80.0","normalPrice":"80.0","nutritionalInfo":null,"productBrand":"仙境奇緣","productInfo":null,"packingSize":null,"descriptionHtml":null,"countryOfOrigin":null,"tags":[],"alcohol":false},{"id":2975812,"title":"犬食 - 牛肉大餐","description":null,"imageUrl":"https://honestbees.s3.amazonaws.com/products/images/480/cf_cf0008810_cf0008810-1.jpg","previewImageUrl":"https://honestbees.s3.amazonaws.com/products/images/480/cf_cf0008810_cf0008810-1.jpg","slug":null,"barcodes":[],"barcode":null,"unitType":"unit_type_item","soldBy":"sold_by_item","amountPerUnit":"1.0","size":"15 公斤","status":"status_available","imageUrlBasename":"cf_cf0008810_cf0008810-1.jpg","currency":"TWD","promotionStartsAt":null,"promotionEndsAt":null,"maxQuantity":"1.0","customerNotesEnabled":true,"price":"586.0","normalPrice":"586.0","nutritionalInfo":null,"productBrand":"葛莉思","productInfo":null,"packingSize":null,"descriptionHtml":null,"countryOfOrigin":null,"tags":[],"alcohol":false},{"id":2975847,"title":"聖萊西 厚片牛奶咬骨 (6入)","description":null,"imageUrl":"https://honestbees.s3.amazonaws.com/products/images/480/cf_cf0008845_cf0008845-1.jpg","previewImageUrl":"https://honestbees.s3.amazonaws.com/products/images/480/cf_cf0008845_cf0008845-1.jpg","slug":null,"barcodes":[],"barcode":null,"unitType":"unit_type_item","soldBy":"sold_by_item","amountPerUnit":"1.0","size":"1 袋","status":"status_available","imageUrlBasename":"cf_cf0008845_cf0008845-1.jpg","currency":"TWD","promotionStartsAt":null,"promotionEndsAt":null,"maxQuantity":"10.0","customerNotesEnabled":true,"price":"167.0","normalPrice":"167.0","nutritionalInfo":null,"productBrand":"聖萊西","productInfo":null,"packingSize":null,"descriptionHtml":null,"countryOfOrigin":null,"tags":[],"alcohol":false},{"id":2975939,"title":"悠游 增豔魚飼料 - 3色中型魚","description":null,"imageUrl":"https://honestbees.s3.amazonaws.com/products/images/480/cf_cf0009012_cf0009012-1.jpg","previewImageUrl":"https://honestbees.s3.amazonaws.com/products/images/480/cf_cf0009012_cf0009012-1.jpg","slug":null,"barcodes":[],"barcode":null,"unitType":"unit_type_item","soldBy":"sold_by_item","amountPerUnit":"1.0","size":"1 罐","status":"status_available","imageUrlBasename":"cf_cf0009012_cf0009012-1.jpg","currency":"TWD","promotionStartsAt":null,"promotionEndsAt":null,"maxQuantity":"10.0","customerNotesEnabled":true,"price":"69.0","normalPrice":"69.0","nutritionalInfo":null,"productBrand":"悠游","productInfo":null,"packingSize":null,"descriptionHtml":null,"countryOfOrigin":null,"tags":[],"alcohol":false},{"id":2975828,"title":"寶路 狗乾糧 - 牛肉口味","description":null,"imageUrl":"https://honestbees.s3.amazonaws.com/products/images/480/cf_cf0008826_cf0008826-1.jpg","previewImageUrl":"https://honestbees.s3.amazonaws.com/products/images/480/cf_cf0008826_cf0008826-1.jpg","slug":null,"barcodes":[],"barcode":null,"unitType":"unit_type_item","soldBy":"sold_by_item","amountPerUnit":"1.0","size":"3 公斤","status":"status_available","imageUrlBasename":"cf_cf0008826_cf0008826-1.jpg","currency":"TWD","promotionStartsAt":null,"promotionEndsAt":null,"maxQuantity":"1.0","customerNotesEnabled":true,"price":"264.0","normalPrice":"264.0","nutritionalInfo":null,"productBrand":"寶路","productInfo":null,"packingSize":null,"descriptionHtml":null,"countryOfOrigin":null,"tags":[],"alcohol":false},{"id":2970059,"title":"唯皮 雙色潔牙骨4.5吋","description":null,"imageUrl":"https://honestbees.s3.amazonaws.com/products/images/480/cf_cf0008955_cf0008955-1.jpg","previewImageUrl":"https://honestbees.s3.amazonaws.com/products/images/480/cf_cf0008955_cf0008955-1.jpg","slug":null,"barcodes":[],"barcode":null,"unitType":"unit_type_item","soldBy":"sold_by_item","amountPerUnit":"1.0","size":"1 入","status":"status_available","imageUrlBasename":"cf_cf0008955_cf0008955-1.jpg","currency":"TWD","promotionStartsAt":null,"promotionEndsAt":null,"maxQuantity":"10.0","customerNotesEnabled":true,"price":"195.0","normalPrice":"195.0","nutritionalInfo":null,"productBrand":"唯皮","productInfo":null,"packingSize":null,"descriptionHtml":null,"countryOfOrigin":null,"tags":[],"alcohol":false},{"id":2969998,"title":"加好寶經典 貓罐 - 遠洋鮪魚大餐","description":null,"imageUrl":"https://honestbees.s3.amazonaws.com/products/images/480/cf_cf0008894_cf0008894-1.jpg","previewImageUrl":"https://honestbees.s3.amazonaws.com/products/images/480/cf_cf0008894_cf0008894-1.jpg","slug":null,"barcodes":[],"barcode":null,"unitType":"unit_type_item","soldBy":"sold_by_item","amountPerUnit":"1.0","size":"170 克","status":"status_available","imageUrlBasename":"cf_cf0008894_cf0008894-1.jpg","currency":"TWD","promotionStartsAt":null,"promotionEndsAt":null,"maxQuantity":"10.0","customerNotesEnabled":true,"price":"26.0","normalPrice":"26.0","nutritionalInfo":null,"productBrand":"加好寶經典","productInfo":null,"packingSize":null,"descriptionHtml":null,"countryOfOrigin":null,"tags":[],"alcohol":false},{"id":2975932,"title":"蒂美特 兔子乾糧","description":null,"imageUrl":"https://honestbees.s3.amazonaws.com/products/images/480/cf_cf0009005_cf0009005-1.jpg","previewImageUrl":"https://honestbees.s3.amazonaws.com/products/images/480/cf_cf0009005_cf0009005-1.jpg","slug":null,"barcodes":[],"barcode":null,"unitType":"unit_type_item","soldBy":"sold_by_item","amountPerUnit":"1.0","size":"1 公斤","status":"status_available","imageUrlBasename":"cf_cf0009005_cf0009005-1.jpg","currency":"TWD","promotionStartsAt":null,"promotionEndsAt":null,"maxQuantity":"10.0","customerNotesEnabled":true,"price":"171.0","normalPrice":"171.0","nutritionalInfo":null,"productBrand":"蒂美特","productInfo":null,"packingSize":null,"descriptionHtml":null,"countryOfOrigin":null,"tags":[],"alcohol":false},{"id":2975810,"title":"成犬乾狗糧 - 牛肉味","description":null,"imageUrl":"https://honestbees.s3.amazonaws.com/products/images/480/cf_cf0008808_cf0008808-1.jpg","previewImageUrl":"https://honestbees.s3.amazonaws.com/products/images/480/cf_cf0008808_cf0008808-1.jpg","slug":null,"barcodes":[],"barcode":null,"unitType":"unit_type_item","soldBy":"sold_by_item","amountPerUnit":"1.0","size":"15 公斤","status":"status_available","imageUrlBasename":"cf_cf0008808_cf0008808-1.jpg","currency":"TWD","promotionStartsAt":null,"promotionEndsAt":null,"maxQuantity":"1.0","customerNotesEnabled":true,"price":"518.0","normalPrice":"518.0","nutritionalInfo":null,"productBrand":"IQ Dog","productInfo":null,"packingSize":null,"descriptionHtml":null,"countryOfOrigin":null,"tags":[],"alcohol":false},{"id":2970033,"title":"唯皮 碎骨 - 小","description":null,"imageUrl":"https://honestbees.s3.amazonaws.com/products/images/480/cf_cf0008929_cf0008929-1.jpg","previewImageUrl":"https://honestbees.s3.amazonaws.com/products/images/480/cf_cf0008929_cf0008929-1.jpg","slug":null,"barcodes":[],"barcode":null,"unitType":"unit_type_item","soldBy":"sold_by_item","amountPerUnit":"1.0","size":"10 入","status":"status_out_of_stock","imageUrlBasename":"cf_cf0008929_cf0008929-1.jpg","currency":"TWD","promotionStartsAt":null,"promotionEndsAt":null,"maxQuantity":"10.0","customerNotesEnabled":true,"price":"45.0","normalPrice":"45.0","nutritionalInfo":null,"productBrand":"唯皮","productInfo":null,"packingSize":null,"descriptionHtml":null,"countryOfOrigin":null,"tags":[],"alcohol":false},{"id":2970870,"title":"西莎花椰洋芋煎小羊排","description":null,"imageUrl":"https://honestbees.s3.amazonaws.com/products/images/480/cf_14852029_1485202900106_p.jpg","previewImageUrl":"https://honestbees.s3.amazonaws.com/products/images/480/cf_14852029_1485202900106_p.jpg","slug":null,"barcodes":[],"barcode":null,"unitType":"unit_type_item","soldBy":"sold_by_item","amountPerUnit":"1.0","size":"100 克 x 6 / 罐","status":"status_out_of_stock","imageUrlBasename":"cf_14852029_1485202900106_p.jpg","currency":"TWD","promotionStartsAt":null,"promotionEndsAt":null,"maxQuantity":"10.0","customerNotesEnabled":true,"price":"240.0","normalPrice":"240.0","nutritionalInfo":null,"productBrand":null,"productInfo":null,"packingSize":null,"descriptionHtml":"\u003cbr /\u003e澳洲上選新鮮羊小排肉，澳洲上選新鮮花椰洋芋，每一口都是原味享受，餐餐寵愛你的寶貝，營養健康美味再升級\u003cbr /\u003e","countryOfOrigin":null,"tags":[],"alcohol":false},{"id":2975912,"title":"祥寶 寵物芳香消臭噴霧","description":null,"imageUrl":"https://honestbees.s3.amazonaws.com/products/images/480/cf_cf0008985_cf0008985-1.jpg","previewImageUrl":"https://honestbees.s3.amazonaws.com/products/images/480/cf_cf0008985_cf0008985-1.jpg","slug":null,"barcodes":[],"barcode":null,"unitType":"unit_type_item","soldBy":"sold_by_item","amountPerUnit":"1.0","size":"220 毫升","status":"status_out_of_stock","imageUrlBasename":"cf_cf0008985_cf0008985-1.jpg","currency":"TWD","promotionStartsAt":null,"promotionEndsAt":null,"maxQuantity":"10.0","customerNotesEnabled":true,"price":"149.0","normalPrice":"149.0","nutritionalInfo":null,"productBrand":"祥寶","productInfo":null,"packingSize":null,"descriptionHtml":null,"countryOfOrigin":null,"tags":[],"alcohol":false},{"id":2970871,"title":"西莎南瓜菠菜烤嫩雞","description":null,"imageUrl":"https://honestbees.s3.amazonaws.com/products/images/480/cf_14852030_1485203000106_p.jpg","previewImageUrl":"https://honestbees.s3.amazonaws.com/products/images/480/cf_14852030_1485203000106_p.jpg","slug":null,"barcodes":[],"barcode":null,"unitType":"unit_type_item","soldBy":"sold_by_item","amountPerUnit":"1.0","size":"100 克 x 6 / 罐","status":"status_out_of_stock","imageUrlBasename":"cf_14852030_1485203000106_p.jpg","currency":"TWD","promotionStartsAt":null,"promotionEndsAt":null,"maxQuantity":"10.0","customerNotesEnabled":true,"price":"240.0","normalPrice":"240.0","nutritionalInfo":null,"productBrand":null,"productInfo":null,"packingSize":null,"descriptionHtml":"\u003cbr /\u003e澳洲上選新鮮嫩雞肉，澳洲上選南瓜菠菜，每一口都是原味享受，餐餐寵愛你的寶貝，營養健康美味再升級\u003cbr /\u003e","countryOfOrigin":null,"tags":[],"alcohol":false},{"id":2975877,"title":"旺得福 兔乾糧","description":null,"imageUrl":"https://honestbees.s3.amazonaws.com/products/images/480/cf_cf0008875_cf0008875-1.jpg","previewImageUrl":"https://honestbees.s3.amazonaws.com/products/images/480/cf_cf0008875_cf0008875-1.jpg","slug":null,"barcodes":[],"barcode":null,"unitType":"unit_type_item","soldBy":"sold_by_item","amountPerUnit":"1.0","size":"2.2 公斤","status":"status_out_of_stock","imageUrlBasename":"cf_cf0008875_cf0008875-1.jpg","currency":"TWD","promotionStartsAt":null,"promotionEndsAt":null,"maxQuantity":"10.0","customerNotesEnabled":true,"price":"194.0","normalPrice":"194.0","nutritionalInfo":null,"productBrand":"旺得福","productInfo":null,"packingSize":null,"descriptionHtml":null,"countryOfOrigin":null,"tags":[],"alcohol":false},{"id":2975902,"title":"仙境奇緣 雅貓貓砂","description":null,"imageUrl":"https://honestbees.s3.amazonaws.com/products/images/480/cf_cf0008974_cf0008974-1.jpg","previewImageUrl":"https://honestbees.s3.amazonaws.com/products/images/480/cf_cf0008974_cf0008974-1.jpg","slug":null,"barcodes":[],"barcode":null,"unitType":"unit_type_item","soldBy":"sold_by_item","amountPerUnit":"1.0","size":"1 包","status":"status_out_of_stock","imageUrlBasename":"cf_cf0008974_cf0008974-1.jpg","currency":"TWD","promotionStartsAt":null,"promotionEndsAt":null,"maxQuantity":"10.0","customerNotesEnabled":true,"price":"172.0","normalPrice":"172.0","nutritionalInfo":null,"productBrand":"仙境奇緣","productInfo":null,"packingSize":null,"descriptionHtml":null,"countryOfOrigin":null,"tags":[],"alcohol":false}],"meta":{"current_page":5,"total_pages":5,"total_count":213}}