{"products":[{"id":3544504,"title":"豬後腿肉絲","description":null,"imageUrl":"https://assets.honestbee.com/products/images/480/cf_24-100935-001_24-100935-001-1.jpg","previewImageUrl":"https://assets.honestbee.com/products/images/480/cf_24-100935-001_24-100935-001-1.jpg","slug":null,"barcodes":[],"barcode":null,"unitType":"unit_type_item","soldBy":"sold_by_item","amountPerUnit":"1.0","size":"250 克","status":"status_out_of_stock","imageUrlBasename":"cf_24-100935-001_24-100935-001-1.jpg","currency":"TWD","promotionStartsAt":null,"promotionEndsAt":null,"maxQuantity":"0.0","customerNotesEnabled":true,"price":"92.0","normalPrice":"92.0","nutritionalInfo":null,"productBrand":"立大食品","productInfo":null,"packingSize":"250 克","descriptionHtml":null,"countryOfOrigin":null,"tags":[],"alcohol":false},{"id":2971139,"title":"冷藏鹿野幼秀土雞","description":null,"imageUrl":"https://honestbees.s3.amazonaws.com/products/images/480/cf_cf0000019_cf0000019-1.jpg","previewImageUrl":"https://honestbees.s3.amazonaws.com/products/images/480/cf_cf0000019_cf0000019-1.jpg","slug":null,"barcodes":[],"barcode":null,"unitType":"unit_type_item","soldBy":"sold_by_item","amountPerUnit":"1.0","size":"1.1公斤± 5 %","status":"status_out_of_stock","imageUrlBasename":"cf_cf0000019_cf0000019-1.jpg","currency":"TWD","promotionStartsAt":null,"promotionEndsAt":null,"maxQuantity":"10.0","customerNotesEnabled":true,"price":"263.0","normalPrice":"263.0","nutritionalInfo":null,"productBrand":null,"productInfo":null,"packingSize":null,"descriptionHtml":null,"countryOfOrigin":null,"tags":[],"alcohol":false}],"meta":{"current_page":3,"total_pages":3,"total_count":98}}